{
  "$schema": "http://json-schema.org/schema#",
  "description": "Schema for PyHTTPIntercept hosting config",

  "definitions": {
    "hosting_config": {
      "type": "object",
      "properties": {
        "doc_root": {"type": "string"},
        "description": {"type": "string"},
        "active": {"type": "boolean"}
      },
      "required": ["doc_root", "active"],
      "additionalProperties": false
    }
  },

  "type": "object",
  "additionalProperties": { "$ref": "#/definitions/hosting_config" }
}