{
  "$schema": "http://json-schema.org/schema#",
  "description": "Schema for PyHTTPIntercept HTTPS domain config",

  "definitions": {

    "https_domain_list": {
      "type": "array",
      "items": {"type": "string"}
    }

  },

  "type": "object",
  "properties": {
    "https_allowed_domains": { "$ref": "#/definitions/https_domain_list" }
  },
  "additionalProperties": false
}