{
  "headers.request": {
    "api": "",
    "module_root": "pyhttpintercept.intercept.handlers",
    "module": "headers.request"
  },
  "headers.response": {
    "api": "",
    "module_root": "pyhttpintercept.intercept.handlers",
    "module": "response_headers.response"
  },
  "uri": {
    "api": "",
    "module_root": "pyhttpintercept.intercept.handlers",
    "module": "uri"
  },
  "canned": {
    "api": "",
    "module_root": "pyhttpintercept.intercept.handlers",
    "module": "canned"
  },
  "body": {
    "api": "*",
    "module_root": "pyhttpintercept.intercept.handlers",
    "module": "body"
  },
  "media.hls.manifest": {
    "api": "*",
    "module_root": "pyhttpintercept.intercept.handlers",
    "module": "media.hls.manifest"
  }
}